^C:\USERS\НАТАЛЬЯ\SOURCE\REPOS\CONSOLEAPPLICATION2\CONSOLEAPPLICATION2\STDAFX.CPP
/c /Zi /nologo /W3 /WX- /diagnostics:classic /sdl /O2 /Oi /Oy- /GL /D WIN32 /D NDEBUG /D _CONSOLE /D _UNICODE /D UNICODE /Gm- /EHsc /MD /GS /Gy /fp:precise /Zc:wchar_t /Zc:forScope /Zc:inline /Yc"stdafx.h" /Fp"RELEASE\CONSOLEAPPLICATION2.PCH" /Fo"RELEASE\\" /Fd"RELEASE\VC141.PDB" /Gd /TP /analyze- C:\USERS\НАТАЛЬЯ\SOURCE\REPOS\CONSOLEAPPLICATION2\CONSOLEAPPLICATION2\STDAFX.CPP
^C:\USERS\НАТАЛЬЯ\SOURCE\REPOS\CONSOLEAPPLICATION2\CONSOLEAPPLICATION2\CONSOLEAPPLICATION2.CPP
/c /Zi /nologo /W3 /WX- /diagnostics:classic /sdl /O2 /Oi /Oy- /GL /D WIN32 /D NDEBUG /D _CONSOLE /D _UNICODE /D UNICODE /Gm- /EHsc /MD /GS /Gy /fp:precise /Zc:wchar_t /Zc:forScope /Zc:inline /Yu"stdafx.h" /Fp"RELEASE\CONSOLEAPPLICATION2.PCH" /Fo"RELEASE\\" /Fd"RELEASE\VC141.PDB" /Gd /TP /analyze- C:\USERS\НАТАЛЬЯ\SOURCE\REPOS\CONSOLEAPPLICATION2\CONSOLEAPPLICATION2\CONSOLEAPPLICATION2.CPP
^D:\КУРСЫ ПО ПРОГРАММИРОВАНИЮ\CONSOLEAPPLICATION2\CONSOLEAPPLICATION2\STDAFX.CPP
/c /Zi /nologo /W3 /WX- /diagnostics:classic /sdl /O2 /Oi /Oy- /GL /D WIN32 /D NDEBUG /D _CONSOLE /D _UNICODE /D UNICODE /Gm- /EHsc /MD /GS /Gy /fp:precise /Zc:wchar_t /Zc:forScope /Zc:inline /Yc"stdafx.h" /Fp"RELEASE\CONSOLEAPPLICATION2.PCH" /Fo"RELEASE\\" /Fd"RELEASE\VC141.PDB" /Gd /TP /analyze- D:\КУРСЫ ПО ПРОГРАММИРОВАНИЮ\CONSOLEAPPLICATION2\CONSOLEAPPLICATION2\STDAFX.CPP
^D:\КУРСЫ ПО ПРОГРАММИРОВАНИЮ\CONSOLEAPPLICATION2\CONSOLEAPPLICATION2\CONSOLEAPPLICATION2.CPP
/c /Zi /nologo /W3 /WX- /diagnostics:classic /sdl /O2 /Oi /Oy- /GL /D WIN32 /D NDEBUG /D _CONSOLE /D _UNICODE /D UNICODE /Gm- /EHsc /MD /GS /Gy /fp:precise /Zc:wchar_t /Zc:forScope /Zc:inline /Yu"stdafx.h" /Fp"RELEASE\CONSOLEAPPLICATION2.PCH" /Fo"RELEASE\\" /Fd"RELEASE\VC141.PDB" /Gd /TP /analyze- D:\КУРСЫ ПО ПРОГРАММИРОВАНИЮ\CONSOLEAPPLICATION2\CONSOLEAPPLICATION2\CONSOLEAPPLICATION2.CPP
